Chapter 15 Two Sample Mendelian Randomisation | A Practical Primer in Human Complex Genetics
…
## Please look at vignettes for options on running this locally if you need to run many instances of this command.

## Clumping 5cQr3c, 62 variants, using EUR population reference

## Removing 8 of 62 variants due to LD with other variants or absence from LD reference panel

15.5 Outcomes

Right, so now we are ready to select the proper outcome, CAD. There are multiple datasets available in MRBase, the database used by TwoSampleMR. Let’s review them all and select one with the largest overlap with our exposure SNPs.

ao_twosamplemr <- available_outcomes()

ao_twosamplemr[grepl("heart disease", ao_twosamplemr$trait), ]

## # A tibble: 27 × 23
##    id      trait note  ncase group_name  year consortium author sex   population
##    <chr>   <chr> <chr> <int> <chr>      <int> <chr>      <chr>  <chr> <chr>     
##  1 finn-b… Majo… I9_C… 21012 public      2021 NA         NA     Male… European  
##  2 ieu-a-8 Coro… <NA>  22233 public      2011 CARDIoGRAM Schun… Male… European  
##  3 ukb-e-… I25 … NA     1205 public      2020 NA         Pan-U… Male… South Asi…
##  4 ukb-b-… Diag… 4120…  5738 public      2018 MRC-IEU    Ben E… Male… European  
##  5 ieu-a-9 Coro… <NA>  63746 public      2013 CARDIoGRA… Delou… Male… Mixed     
##  6 ieu-a-6 Coro… <NA>  15420 public      2011 C4D        Peden  Male… Mixed     
##  7 ieu-a-7 Coro… <NA>  60801 public      2015 CARDIoGRA… Nikpay Male… Mixed     
##  8 ukb-d-… Majo… NA    10157 public      2018 NA         Neale… Male… European  
##  9 ukb-a-… Diag… NA     8755 public      2017 Neale Lab  Neale  Male… European  
## 10 ukb-b-… Diag… 4120…  5861 public      2018 MRC-IEU    Ben E… Male… European  
## # … with 17 more rows, and 13 more variables: unit <chr>, nsnp <int>,
## #   sample_size <int>, build <chr>, ncontrol <int>, subcategory <chr>,
## #   category <chr>, ontology <chr>, doi <chr>, mr <int>, priority <int>,
## #   pmid <int>, sd <dbl>
…
